INDEX VERSION 1.126+/home/nilton/Dropbox/Projetos/Android/.metadata/.plugins/org.eclipse.jdt.core
1513993030.index
460152253.index
1259291233.index
1961235293.index
2598035366.index
3493004197.index
2426646370.index
2895934474.index
231341807.index
534805504.index
3542660237.index
1159935248.index
3296295421.index
3640646894.index
1609788100.index
1795668906.index
